{
    "news":[
        {
            "id":1,
            "title":"PTI govt will present IMF bailout package before parliament, says Asad Umar",
            "description":"The minister said that the Pakistan Tehreek-i-Insaf (PTI) government had reduced the burden on common man as compared to the Pakistan Muslim League-Nawaz (PML-N) government, which had levied increased taxes on items necessary for a common man, besides increasing electricity prices. However, the incumbent government had only imposed taxes on luxury cars and expensive mobile phones, the minister said Umar said $12 billion were required to fill the current account deficit, which was essential for the country's economic stability.The finance minister vowed that the PTI government will not take any step contrary to the party's manifesto. “Measures being taken to get back the stolen national wealth stashed abroad and national institutions are being strengthened for this purpose, he said. Earlier this month, the government made the difficult decision to approach the IMF for a bailout package to address the mounting balance of payments crisis faced by Pakistan.",
            "picUrl":"https://firebasestorage.googleapis.com/v0/b/towardjobs-2ce18.appspot.com/o/news%2Fone.PNG?alt=media&token=7572f870-2c2b-4d23-959b-94907e75b6ad"
        },
        {
            "id":2,
            "title":"KP unveils Rs648 billion budget for remaining eight months of FY 2018-19",
            "description":"The minister said that the Pakistan Tehreek-i-Insaf (PTI) government had reduced the burden on common man as compared to the Pakistan Muslim League-Nawaz (PML-N) government, which had levied increased taxes on items necessary for a common man, besides increasing electricity prices. However, the incumbent government had only imposed taxes on luxury cars and expensive mobile phones, the minister said Umar said $12 billion were required to fill the current account deficit, which was essential for the country's economic stability.The finance minister vowed that the PTI government will not take any step contrary to the party's manifesto. “Measures being taken to get back the stolen national wealth stashed abroad and national institutions are being strengthened for this purpose, he said. Earlier this month, the government made the difficult decision to approach the IMF for a bailout package to address the mounting balance of payments crisis faced by Pakistan.",
            "picUrl":"https://firebasestorage.googleapis.com/v0/b/towardjobs-2ce18.appspot.com/o/news%2Ftwo.PNG?alt=media&token=0e39a45c-54d7-41e6-8869-83e83fcbd751"
        },
        {
            "id":3,
            "title":"Saudi Arabia likely to admit Khashoggi died during 'interrogation gone wrong', CNN reports",
            "description":"The minister said that the Pakistan Tehreek-i-Insaf (PTI) government had reduced the burden on common man as compared to the Pakistan Muslim League-Nawaz (PML-N) government, which had levied increased taxes on items necessary for a common man, besides increasing electricity prices. However, the incumbent government had only imposed taxes on luxury cars and expensive mobile phones, the minister said Umar said $12 billion were required to fill the current account deficit, which was essential for the country's economic stability.The finance minister vowed that the PTI government will not take any step contrary to the party's manifesto. “Measures being taken to get back the stolen national wealth stashed abroad and national institutions are being strengthened for this purpose, he said. Earlier this month, the government made the difficult decision to approach the IMF for a bailout package to address the mounting balance of payments crisis faced by Pakistan.",
            "picUrl":"https://firebasestorage.googleapis.com/v0/b/towardjobs-2ce18.appspot.com/o/news%2Fthree.PNG?alt=media&token=a8b46b82-0ebf-49c8-9e9d-bf35c7e78aa7"
        },
        {
            "id":4,
            "title":"Sindh cabinet gets four more ministers, expands to 16 members",
            "description":"The minister said that the Pakistan Tehreek-i-Insaf (PTI) government had reduced the burden on common man as compared to the Pakistan Muslim League-Nawaz (PML-N) government, which had levied increased taxes on items necessary for a common man, besides increasing electricity prices. However, the incumbent government had only imposed taxes on luxury cars and expensive mobile phones, the minister said Umar said $12 billion were required to fill the current account deficit, which was essential for the country's economic stability.The finance minister vowed that the PTI government will not take any step contrary to the party's manifesto. “Measures being taken to get back the stolen national wealth stashed abroad and national institutions are being strengthened for this purpose, he said. Earlier this month, the government made the difficult decision to approach the IMF for a bailout package to address the mounting balance of payments crisis faced by Pakistan.",
            "picUrl":"https://firebasestorage.googleapis.com/v0/b/towardjobs-2ce18.appspot.com/o/news%2Ffour.PNG?alt=media&token=84a518f9-35f6-4f59-98bc-63e5568719b6"
        },
        {
            "id":5,
            "title":"PTI govt will present IMF bailout package before parliament, says Asad Umar",
            "description":"The minister said that the Pakistan Tehreek-i-Insaf (PTI) government had reduced the burden on common man as compared to the Pakistan Muslim League-Nawaz (PML-N) government, which had levied increased taxes on items necessary for a common man, besides increasing electricity prices. However, the incumbent government had only imposed taxes on luxury cars and expensive mobile phones, the minister said Umar said $12 billion were required to fill the current account deficit, which was essential for the country's economic stability.The finance minister vowed that the PTI government will not take any step contrary to the party's manifesto. “Measures being taken to get back the stolen national wealth stashed abroad and national institutions are being strengthened for this purpose, he said. Earlier this month, the government made the difficult decision to approach the IMF for a bailout package to address the mounting balance of payments crisis faced by Pakistan.",
            "picUrl":"https://firebasestorage.googleapis.com/v0/b/towardjobs-2ce18.appspot.com/o/news%2Fone.PNG?alt=media&token=7572f870-2c2b-4d23-959b-94907e75b6ad"
        },
        {
            "id":6,
            "title":"KP unveils Rs648 billion budget for remaining eight months of FY 2018-19",
            "description":"The minister said that the Pakistan Tehreek-i-Insaf (PTI) government had reduced the burden on common man as compared to the Pakistan Muslim League-Nawaz (PML-N) government, which had levied increased taxes on items necessary for a common man, besides increasing electricity prices. However, the incumbent government had only imposed taxes on luxury cars and expensive mobile phones, the minister said Umar said $12 billion were required to fill the current account deficit, which was essential for the country's economic stability.The finance minister vowed that the PTI government will not take any step contrary to the party's manifesto. “Measures being taken to get back the stolen national wealth stashed abroad and national institutions are being strengthened for this purpose, he said. Earlier this month, the government made the difficult decision to approach the IMF for a bailout package to address the mounting balance of payments crisis faced by Pakistan.",
            "picUrl":"https://firebasestorage.googleapis.com/v0/b/towardjobs-2ce18.appspot.com/o/news%2Ftwo.PNG?alt=media&token=0e39a45c-54d7-41e6-8869-83e83fcbd751"
        },
        {
            "id":7,
            "title":"Saudi Arabia likely to admit Khashoggi died during 'interrogation gone wrong', CNN reports",
            "description":"The minister said that the Pakistan Tehreek-i-Insaf (PTI) government had reduced the burden on common man as compared to the Pakistan Muslim League-Nawaz (PML-N) government, which had levied increased taxes on items necessary for a common man, besides increasing electricity prices. However, the incumbent government had only imposed taxes on luxury cars and expensive mobile phones, the minister said Umar said $12 billion were required to fill the current account deficit, which was essential for the country's economic stability.The finance minister vowed that the PTI government will not take any step contrary to the party's manifesto. “Measures being taken to get back the stolen national wealth stashed abroad and national institutions are being strengthened for this purpose, he said. Earlier this month, the government made the difficult decision to approach the IMF for a bailout package to address the mounting balance of payments crisis faced by Pakistan.",
            "picUrl":"https://firebasestorage.googleapis.com/v0/b/towardjobs-2ce18.appspot.com/o/news%2Fthree.PNG?alt=media&token=a8b46b82-0ebf-49c8-9e9d-bf35c7e78aa7"
        },
        {
            "id":8,
            "title":"Sindh cabinet gets four more ministers, expands to 16 members",
            "description":"The minister said that the Pakistan Tehreek-i-Insaf (PTI) government had reduced the burden on common man as compared to the Pakistan Muslim League-Nawaz (PML-N) government, which had levied increased taxes on items necessary for a common man, besides increasing electricity prices. However, the incumbent government had only imposed taxes on luxury cars and expensive mobile phones, the minister said Umar said $12 billion were required to fill the current account deficit, which was essential for the country's economic stability.The finance minister vowed that the PTI government will not take any step contrary to the party's manifesto. “Measures being taken to get back the stolen national wealth stashed abroad and national institutions are being strengthened for this purpose, he said. Earlier this month, the government made the difficult decision to approach the IMF for a bailout package to address the mounting balance of payments crisis faced by Pakistan.",
            "picUrl":"https://firebasestorage.googleapis.com/v0/b/towardjobs-2ce18.appspot.com/o/news%2Ffour.PNG?alt=media&token=84a518f9-35f6-4f59-98bc-63e5568719b6"
        },
        {
            "id":9,
            "title":"Sole crossing between Syria and Israeli-controlled Golan reopens after 4 years",
            "description":"The minister said that the Pakistan Tehreek-i-Insaf (PTI) government had reduced the burden on common man as compared to the Pakistan Muslim League-Nawaz (PML-N) government, which had levied increased taxes on items necessary for a common man, besides increasing electricity prices. However, the incumbent government had only imposed taxes on luxury cars and expensive mobile phones, the minister said Umar said $12 billion were required to fill the current account deficit, which was essential for the country's economic stability.The finance minister vowed that the PTI government will not take any step contrary to the party's manifesto. “Measures being taken to get back the stolen national wealth stashed abroad and national institutions are being strengthened for this purpose, he said. Earlier this month, the government made the difficult decision to approach the IMF for a bailout package to address the mounting balance of payments crisis faced by Pakistan.",
            "picUrl":"https://firebasestorage.googleapis.com/v0/b/towardjobs-2ce18.appspot.com/o/news%2Ffive.PNG?alt=media&token=aea3eedf-5135-46b1-b4f3-a5110d95c13c"
        },
        {
            "id":10,
            "title":"Katrina Kaif will play a dancer from Pakistan in next with Varun Dhawan",
            "description":"The minister said that the Pakistan Tehreek-i-Insaf (PTI) government had reduced the burden on common man as compared to the Pakistan Muslim League-Nawaz (PML-N) government, which had levied increased taxes on items necessary for a common man, besides increasing electricity prices. However, the incumbent government had only imposed taxes on luxury cars and expensive mobile phones, the minister said Umar said $12 billion were required to fill the current account deficit, which was essential for the country's economic stability.The finance minister vowed that the PTI government will not take any step contrary to the party's manifesto. “Measures being taken to get back the stolen national wealth stashed abroad and national institutions are being strengthened for this purpose, he said. Earlier this month, the government made the difficult decision to approach the IMF for a bailout package to address the mounting balance of payments crisis faced by Pakistan.",
            "picUrl":"https://firebasestorage.googleapis.com/v0/b/towardjobs-2ce18.appspot.com/o/news%2Fsix.PNG?alt=media&token=b54866b9-d8d9-4570-8901-6fd3006c8a8b"
        },
        {
            "id":11,
            "title":"Pakistan wins first medal in 2018 Youth Olympics in wrestling",
            "description":"The minister said that the Pakistan Tehreek-i-Insaf (PTI) government had reduced the burden on common man as compared to the Pakistan Muslim League-Nawaz (PML-N) government, which had levied increased taxes on items necessary for a common man, besides increasing electricity prices. However, the incumbent government had only imposed taxes on luxury cars and expensive mobile phones, the minister said Umar said $12 billion were required to fill the current account deficit, which was essential for the country's economic stability.The finance minister vowed that the PTI government will not take any step contrary to the party's manifesto. “Measures being taken to get back the stolen national wealth stashed abroad and national institutions are being strengthened for this purpose, he said. Earlier this month, the government made the difficult decision to approach the IMF for a bailout package to address the mounting balance of payments crisis faced by Pakistan.",
            "picUrl":"https://firebasestorage.googleapis.com/v0/b/towardjobs-2ce18.appspot.com/o/news%2Fseven.PNG?alt=media&token=a7d9ea38-c740-4957-9e0a-323522636145"
        },
        {
            "id":12,
            "title":"Pakistan hopes Turkey, Saudi Arabia will jointly probe Khashoggi's disappearance",
            "description":"The minister said that the Pakistan Tehreek-i-Insaf (PTI) government had reduced the burden on common man as compared to the Pakistan Muslim League-Nawaz (PML-N) government, which had levied increased taxes on items necessary for a common man, besides increasing electricity prices. However, the incumbent government had only imposed taxes on luxury cars and expensive mobile phones, the minister said Umar said $12 billion were required to fill the current account deficit, which was essential for the country's economic stability.The finance minister vowed that the PTI government will not take any step contrary to the party's manifesto. “Measures being taken to get back the stolen national wealth stashed abroad and national institutions are being strengthened for this purpose, he said. Earlier this month, the government made the difficult decision to approach the IMF for a bailout package to address the mounting balance of payments crisis faced by Pakistan.",
            "picUrl":"https://firebasestorage.googleapis.com/v0/b/towardjobs-2ce18.appspot.com/o/news%2Feight.PNG?alt=media&token=c7e6bf91-521a-460e-b1b4-b5e2d53a382a"
        },
        {
            "id":13,
            "title":"Sole crossing between Syria and Israeli-controlled Golan reopens after 4 years",
            "description":"The minister said that the Pakistan Tehreek-i-Insaf (PTI) government had reduced the burden on common man as compared to the Pakistan Muslim League-Nawaz (PML-N) government, which had levied increased taxes on items necessary for a common man, besides increasing electricity prices. However, the incumbent government had only imposed taxes on luxury cars and expensive mobile phones, the minister said Umar said $12 billion were required to fill the current account deficit, which was essential for the country's economic stability.The finance minister vowed that the PTI government will not take any step contrary to the party's manifesto. “Measures being taken to get back the stolen national wealth stashed abroad and national institutions are being strengthened for this purpose, he said. Earlier this month, the government made the difficult decision to approach the IMF for a bailout package to address the mounting balance of payments crisis faced by Pakistan.",
            "picUrl":"https://firebasestorage.googleapis.com/v0/b/towardjobs-2ce18.appspot.com/o/news%2Ffive.PNG?alt=media&token=aea3eedf-5135-46b1-b4f3-a5110d95c13c"
        },
        {
            "id":14,
            "title":"Katrina Kaif will play a dancer from Pakistan in next with Varun Dhawan",
            "description":"The minister said that the Pakistan Tehreek-i-Insaf (PTI) government had reduced the burden on common man as compared to the Pakistan Muslim League-Nawaz (PML-N) government, which had levied increased taxes on items necessary for a common man, besides increasing electricity prices. However, the incumbent government had only imposed taxes on luxury cars and expensive mobile phones, the minister said Umar said $12 billion were required to fill the current account deficit, which was essential for the country's economic stability.The finance minister vowed that the PTI government will not take any step contrary to the party's manifesto. “Measures being taken to get back the stolen national wealth stashed abroad and national institutions are being strengthened for this purpose, he said. Earlier this month, the government made the difficult decision to approach the IMF for a bailout package to address the mounting balance of payments crisis faced by Pakistan.",
            "picUrl":"https://firebasestorage.googleapis.com/v0/b/towardjobs-2ce18.appspot.com/o/news%2Fsix.PNG?alt=media&token=b54866b9-d8d9-4570-8901-6fd3006c8a8b"
        },
        {
            "id":15,
            "title":"Pakistan wins first medal in 2018 Youth Olympics in wrestling",
            "description":"The minister said that the Pakistan Tehreek-i-Insaf (PTI) government had reduced the burden on common man as compared to the Pakistan Muslim League-Nawaz (PML-N) government, which had levied increased taxes on items necessary for a common man, besides increasing electricity prices. However, the incumbent government had only imposed taxes on luxury cars and expensive mobile phones, the minister said Umar said $12 billion were required to fill the current account deficit, which was essential for the country's economic stability.The finance minister vowed that the PTI government will not take any step contrary to the party's manifesto. “Measures being taken to get back the stolen national wealth stashed abroad and national institutions are being strengthened for this purpose, he said. Earlier this month, the government made the difficult decision to approach the IMF for a bailout package to address the mounting balance of payments crisis faced by Pakistan.",
            "picUrl":"https://firebasestorage.googleapis.com/v0/b/towardjobs-2ce18.appspot.com/o/news%2Fseven.PNG?alt=media&token=a7d9ea38-c740-4957-9e0a-323522636145"
        },
        {
            "id":16,
            "title":"Pakistan hopes Turkey, Saudi Arabia will jointly probe Khashoggi's disappearance",
            "description":"The minister said that the Pakistan Tehreek-i-Insaf (PTI) government had reduced the burden on common man as compared to the Pakistan Muslim League-Nawaz (PML-N) government, which had levied increased taxes on items necessary for a common man, besides increasing electricity prices. However, the incumbent government had only imposed taxes on luxury cars and expensive mobile phones, the minister said Umar said $12 billion were required to fill the current account deficit, which was essential for the country's economic stability.The finance minister vowed that the PTI government will not take any step contrary to the party's manifesto. “Measures being taken to get back the stolen national wealth stashed abroad and national institutions are being strengthened for this purpose, he said. Earlier this month, the government made the difficult decision to approach the IMF for a bailout package to address the mounting balance of payments crisis faced by Pakistan.",
            "picUrl":"https://firebasestorage.googleapis.com/v0/b/towardjobs-2ce18.appspot.com/o/news%2Feight.PNG?alt=media&token=c7e6bf91-521a-460e-b1b4-b5e2d53a382a"
        }
    ]
    
}